# Fdb version 3
["pdflatex"] 1508928974 "vcs_statuten_track.tex" "/home/nicholas/Documents/[VCS]/[VCS]/VCS Präsi/VCS Statuten/HS17/Statuten_aktuell/Text/vcs_statuten_track.pdf" "vcs_statuten_track" 1508928975
  "/etc/texmf/web2c/texmf.cnf" 1483505293 1101 af7716885e081ab43982cab7b4672c1a ""
  "/home/nicholas/Documents/[VCS]/[VCS]/VCS Präsi/VCS Statuten/HS17/Statuten_aktuell/Text/vcs_statuten_track.aux" 1508928708 5806 1cd95569d84695d7584c558765906645 ""
  "/usr/share/texlive/texmf-dist/fonts/map/fontname/texfonts.map" 1272929888 3287 e6b82fe08f5336d4d5ebc73fb1152e87 ""
  "/usr/share/texlive/texmf-dist/fonts/tfm/public/cm/cmti10.tfm" 1136768653 1480 aa8e34af0eb6a2941b776984cf1dfdc4 ""
  "/usr/share/texlive/texmf-dist/web2c/texmf.cnf" 1458942643 31351 b32c45dce4a01cb7b53ed90c546614ca ""
  "/usr/share/texmf/web2c/texmf.cnf" 1458942643 31351 b32c45dce4a01cb7b53ed90c546614ca ""
  "/var/lib/texmf/web2c/pdftex/pdflatex.fmt" 1483505494 3856339 7969668764e7b10668aa954b401c911a ""
  "vcs_statuten_track.tex" 1508928972 23546 27a5bce67c90d1c0d0c2a336728f6855 ""
  (generated)
  "/home/nicholas/Documents/[VCS]/[VCS]/VCS Präsi/VCS Statuten/HS17/Statuten_aktuell/Text/vcs_statuten_track.log"
  "/home/nicholas/Documents/[VCS]/[VCS]/VCS Präsi/VCS Statuten/HS17/Statuten_aktuell/Text/vcs_statuten_track.pdf"
  "vcs_statuten_track.log"
